,Unnamed: 0,Unnamed: 1,Unnamed: 2,Unnamed: 3,Unnamed: 4,Unnamed: 5,Unnamed: 6,Unnamed: 7,Unnamed: 8,Unnamed: 9,Unnamed: 10,Performance,Performance.1,Performance.2,Performance.3,Performance.4,Performance.5,Performance.6,Performance.7,Performance.8,Performance.9,Performance.10,Performance.11,Expected,Expected.1,Expected.2,SCA,SCA.1,Passes,Passes.1,Passes.2,Passes.3,Dribbles,Dribbles.1,Unnamed: 34
0,Date,Day,Comp,Round,Venue,Result,Squad,Opponent,Start,Pos,Min,Gls,Ast,PK,PKatt,Sh,SoT,CrdY,CrdR,Touches,Tkl,Int,Blocks,xG,npxG,xAG,SCA,GCA,Cmp,Att,Cmp%,Prog,Succ,Att,Match Report
1,2022-06-04,Sat,UEFA Nations League,League A,Away,L 0–1,eng England,hu Hungary,Y,CB,90,0,0,0,0,1,0,1,0,,,3,,,,,,,,,,,,,Match Report
2,2022-06-07,Tue,UEFA Nations League,League A,Away,D 1–1,eng England,de Germany,Y,CB,90,0,0,0,0,1,1,0,0,,,0,,,,,,,,,,,,,Match Report
3,2022-06-11,Sat,UEFA Nations League,League A,Home,D 0–0,eng England,it Italy,Y,CB,90,0,0,0,0,0,0,0,0,,,1,,,,,,,,,,,,,Match Report
4,2022-06-14,Tue,UEFA Nations League,League A,Home,L 0–4,eng England,hu Hungary,N,,6,0,0,0,0,0,0,0,0,,,0,,,,,,,,,,,,,Match Report
5,2022-08-07,Sun,Premier League,Matchweek 1,Home,L 1–2,Manchester Utd,Brighton,Y*,CB,90,0,0,0,0,1,0,1,0,86,1,4,3,0.2,0.2,0.0,1,0,63,72,87.5,4,0,0,Match Report
6,2022-08-13,Sat,Premier League,Matchweek 2,Away,L 0–4,Manchester Utd,Brentford,Y*,CB,90,0,0,0,0,0,0,1,0,59,0,1,4,0.0,0.0,0.0,1,0,46,50,92.0,0,0,0,Match Report
7,2022-09-04,Sun,Premier League,Matchweek 6,Home,W 3–1,Manchester Utd,Arsenal,N,CB,11,0,0,0,0,0,0,1,0,4,0,0,0,0.0,0.0,0.0,0,0,2,2,100.0,0,0,0,Match Report
8,2022-09-08,Thu,Europa Lg,Group stage,Home,L 0–1,eng Manchester Utd,es Real Sociedad,Y*,CB,90,0,0,0,0,0,0,0,0,66,1,1,1,0.0,0.0,0.0,2,0,49,60,81.7,1,0,0,Match Report
9,,,,,,,,,,,,,,,,,,,,,,,,,,,,,,,,,,,
10,2022-09-15,Thu,Europa Lg,Group stage,Away,W 2–0,eng Manchester Utd,md Sheriff Tiraspol,N,CB,1,0,0,0,0,0,0,0,0,6,0,0,0,0.0,0.0,0.0,0,0,6,6,100.0,0,0,0,Match Report
11,2022-09-23,Fri,UEFA Nations League,League A,Away,L 0–1,eng England,it Italy,Y,CB,90,0,0,0,0,0,0,0,0,,,1,,,,,,,,,,,,,Match Report
12,2022-09-26,Mon,UEFA Nations League,League A,Home,D 3–3,eng England,de Germany,Y,CB,90,0,0,0,0,1,0,0,0,,,2,,,,,,,,,,,,,Match Report
13,2022-10-27,Thu,Europa Lg,Group stage,Home,W 3–0,eng Manchester Utd,md Sheriff Tiraspol,N,CB,45,0,0,0,0,0,0,1,0,51,0,0,0,0.0,0.0,0.0,1,0,49,51,96.1,5,0,0,Match Report
14,2022-10-30,Sun,Premier League,Matchweek 14,Home,W 1–0,Manchester Utd,West Ham,Y*,CB,90,0,0,0,0,0,0,0,0,65,1,0,4,0.0,0.0,0.0,0,0,42,51,82.4,0,0,1,Match Report
15,2022-11-03,Thu,Europa Lg,Group stage,Away,W 1–0,eng Manchester Utd,es Real Sociedad,N,FW,8,0,0,0,0,0,0,0,0,3,0,0,0,0.0,0.0,0.0,0,0,1,2,50.0,0,0,0,Match Report
16,2022-11-10,Thu,EFL Cup,Third round,Home,W 4–2,Manchester Utd,Aston Villa,Y*,CB,90,0,0,0,0,1,1,1,0,,,0,,,,,,,,,,,,,Match Report
17,2022-11-21,Mon,World Cup,Group stage,Neutral,W 6–2,eng England,ir IR Iran,Y,CB,69,0,1,0,0,2,0,0,0,79,1,0,1,0.2,0.2,0.0,1,1,66,74,89.2,2,1,1,Match Report
18,2022-11-25,Fri,World Cup,Group stage,Neutral,D 0–0,eng England,us United States,Y,CB,90,0,0,0,0,1,1,0,0,92,1,1,1,0.0,0.0,0.0,1,0,71,81,87.7,5,1,1,Match Report
19,2022-11-29,Tue,World Cup,Group stage,Neutral,W 3–0,eng England,wls Wales,Y,CB,90,0,0,0,0,1,0,0,0,91,0,1,1,0.0,0.0,0.0,1,0,77,85,90.6,2,0,0,Match Report
20,2022-12-04,Sun,World Cup,Round of 16,Neutral,W 3–0,eng England,sn Senegal,Y,CB,90,0,0,0,0,0,0,0,0,84,4,1,1,0.0,0.0,0.0,1,0,62,76,81.6,5,0,0,Match Report
21,2022-12-10,Sat,World Cup,Quarter-finals,Neutral,L 1–2,eng England,fr France,Y,CB,90,0,0,0,0,2,0,1,0,99,1,1,0,0.1,0.1,0.0,2,0,78,91,85.7,5,0,0,Match Report
22,2022-12-27,Tue,Premier League,Matchweek 17,Home,W 3–0,Manchester Utd,Nott'ham Forest,N,CB,14,0,0,0,0,0,0,0,0,7,0,0,1,0.0,0.0,0.0,0,0,4,5,80.0,1,0,0,Match Report
23,2022-12-31,Sat,Premier League,Matchweek 18,Away,W 1–0,Manchester Utd,Wolves,N,AM,1,0,0,0,0,0,0,0,0,2,0,0,0,0.0,0.0,0.0,0,0,0,0,,0,0,0,Match Report
24,2023-01-03,Tue,Premier League,Matchweek 19,Home,W 3–0,Manchester Utd,Bournemouth,Y*,CB,90,0,0,0,0,0,0,0,0,74,2,2,1,0.0,0.0,0.0,0,0,58,65,89.2,2,0,0,Match Report
25,2023-01-06,Fri,FA Cup,Third round proper,Home,W 3–1,Manchester Utd,Everton,N,,8,0,0,0,0,0,0,0,0,,,0,,,,,,,,,,,,,Match Report
26,,,,,,13-4-7,,,16/24,,1513,0,1,0,0,11,3,7,0,868,12,19,18,0.6,0.6,0.1,11,1,674,771,87.4,32,2,3,
