Unnamed: 0,Unnamed: 1,Unnamed: 2,Unnamed: 3,Unnamed: 4,Playing Time,Playing Time.1,Playing Time.2,Performance,Performance.1,Performance.2,Performance.3,Performance.4,Performance.5,Performance.6,Per 90 Minutes,Per 90 Minutes.1,Per 90 Minutes.2,Per 90 Minutes.3,Per 90 Minutes.4,Expected,Expected.1,Expected.2,Expected.3,Per 90 Minutes.5,Per 90 Minutes.6,Per 90 Minutes.7,Per 90 Minutes.8,Per 90 Minutes.9,Unnamed: 29,-additional
Player,Nation,Pos,Age,MP,Starts,Min,90s,Gls,Ast,G-PK,PK,PKatt,CrdY,CrdR,Gls,Ast,G+A,G-PK,G+A-PK,xG,npxG,xAG,npxG+xAG,xG,xAG,xG+xAG,npxG,npxG+xAG,Matches,-9999
David de Gea,es ESP,GK,30,46,46,4140,46.0,0,0,0,0,0,0,0,0.00,0.00,0.00,0.00,0.00,0.0,0.0,0.0,0.0,0.00,0.00,0.00,0.00,0.00,Matches,7ba6d84e
Bruno Fernandes,pt POR,MF,26,46,43,3853,42.8,10,14,10,0,2,10,0,0.23,0.33,0.56,0.23,0.56,12.0,10.4,13.2,23.7,0.30,0.33,0.63,0.26,0.59,Matches,507c7bdf
Cristiano Ronaldo,pt POR,FW,36,38,35,3186,35.4,24,3,21,3,4,9,0,0.68,0.08,0.76,0.59,0.68,20.8,18.5,3.7,22.1,0.61,0.11,0.72,0.54,0.65,Matches,dea698d9
Harry Maguire,eng ENG,DF,28,37,35,3168,35.2,2,0,2,0,0,9,1,0.06,0.00,0.06,0.06,0.06,2.8,2.8,0.4,3.2,0.08,0.01,0.10,0.08,0.10,Matches,d8931174
Scott McTominay,sct SCO,MF,24,37,35,2994,33.3,2,1,2,0,0,10,0,0.06,0.03,0.09,0.06,0.09,2.6,2.6,2.2,4.8,0.08,0.07,0.15,0.08,0.15,Matches,d93c2511
Victor Lindelöf,se SWE,DF,27,35,33,2960,32.9,0,2,0,0,0,5,0,0.00,0.06,0.06,0.00,0.06,0.2,0.2,1.1,1.4,0.01,0.04,0.04,0.01,0.04,Matches,f5deef4c
Fred,br BRA,MF,28,36,30,2588,28.8,4,5,4,0,0,8,0,0.14,0.17,0.31,0.14,0.31,1.7,1.7,2.3,4.0,0.06,0.09,0.15,0.06,0.15,Matches,b853e0ad
Jadon Sancho,eng ENG,FW,21,38,27,2481,27.6,5,3,5,0,0,0,0,0.18,0.11,0.29,0.18,0.29,4.7,4.7,5.0,9.7,0.18,0.20,0.38,0.18,0.38,Matches,dbf053da
Raphaël Varane,fr FRA,DF,28,29,26,2363,26.3,1,1,1,0,0,1,0,0.04,0.04,0.08,0.04,0.08,1.3,1.3,0.2,1.6,0.05,0.01,0.06,0.05,0.06,Matches,9f8e9423
Diogo Dalot,pt POR,DF,22,30,24,2335,25.9,0,0,0,0,0,6,0,0.00,0.00,0.00,0.00,0.00,0.8,0.8,1.4,2.2,0.04,0.06,0.10,0.04,0.10,Matches,d9565625
Aaron Wan-Bissaka,eng ENG,DF,23,26,25,2212,24.6,0,0,0,0,0,2,1,0.00,0.00,0.00,0.00,0.00,0.6,0.6,1.1,1.7,0.02,0.04,0.07,0.02,0.07,Matches,9e525177
Luke Shaw,eng ENG,DF,26,27,26,2207,24.5,0,5,0,0,0,11,0,0.00,0.20,0.20,0.00,0.20,0.3,0.3,4.6,4.9,0.01,0.21,0.22,0.01,0.22,Matches,9c94165b
Alex Telles,br BRA,DF,28,26,22,2024,22.5,1,4,1,0,0,3,0,0.04,0.18,0.22,0.04,0.22,0.5,0.5,2.9,3.4,0.02,0.13,0.16,0.02,0.16,Matches,e73c9bb2
Paul Pogba,fr FRA,MFFW,28,27,21,1776,19.7,1,9,1,0,0,8,1,0.05,0.46,0.51,0.05,0.51,2.9,2.9,4.2,7.2,0.16,0.22,0.38,0.16,0.38,Matches,867239d3
Mason Greenwood,eng ENG,FW,19,24,20,1693,18.8,6,2,6,0,0,2,0,0.32,0.11,0.43,0.32,0.43,5.1,5.1,2.8,7.9,0.29,0.16,0.45,0.29,0.45,Matches,58eee997
Nemanja Matić,rs SRB,MFDF,32,32,18,1672,18.6,0,4,0,0,0,5,0,0.00,0.22,0.22,0.00,0.22,0.4,0.4,2.1,2.4,0.02,0.12,0.14,0.02,0.14,Matches,eb7822d7
Marcus Rashford,eng ENG,FWMF,23,32,18,1657,18.4,5,2,5,0,0,3,0,0.27,0.11,0.38,0.27,0.38,4.0,4.0,2.0,6.0,0.24,0.12,0.36,0.24,0.36,Matches,a1d5bd30
Anthony Elanga,se SWE,FWMF,19,27,16,1448,16.1,3,2,3,0,0,0,0,0.19,0.12,0.31,0.19,0.31,3.8,3.8,2.5,6.3,0.25,0.16,0.41,0.25,0.41,Matches,2fba6108
Edinson Cavani,uy URU,FW,34,20,8,916,10.2,2,1,2,0,0,1,0,0.20,0.10,0.29,0.20,0.29,3.6,3.6,1.6,5.2,0.39,0.17,0.56,0.39,0.56,Matches,527f063d
Jesse Lingard,eng ENG,MFFW,28,22,4,561,6.2,2,1,2,0,0,1,0,0.32,0.16,0.48,0.32,0.48,0.9,0.9,1.0,1.9,0.16,0.19,0.35,0.16,0.35,Matches,810e3c74
Eric Bailly,ci CIV,DF,27,7,6,487,5.4,0,0,0,0,0,1,0,0.00,0.00,0.00,0.00,0.00,0.0,0.0,0.0,0.0,0.00,0.00,0.00,0.00,0.00,Matches,a1232f4e
Juan Mata,es ESP,MF,33,12,4,413,4.6,0,0,0,0,0,0,0,0.00,0.00,0.00,0.00,0.00,0.9,0.9,0.4,1.2,0.23,0.10,0.33,0.23,0.33,Matches,29733c72
Donny van de Beek,nl NED,MF,24,14,4,388,4.3,1,0,1,0,0,1,0,0.23,0.00,0.23,0.23,0.23,0.8,0.8,0.5,1.3,0.27,0.16,0.43,0.27,0.43,Matches,50dc94ce
Anthony Martial,fr FRA,FW,25,11,4,369,4.1,1,0,1,0,0,0,0,0.24,0.00,0.24,0.24,0.24,0.6,0.6,0.0,0.6,0.20,0.00,0.20,0.20,0.20,Matches,8b788c01
Dean Henderson,eng ENG,GK,24,3,3,277,3.1,0,0,0,0,0,0,0,0.00,0.00,0.00,0.00,0.00,0.0,0.0,0.0,0.0,0.00,0.00,0.00,0.00,0.00,Matches,e5a76dfe
Phil Jones,eng ENG,DFMF,29,5,2,193,2.1,0,0,0,0,0,0,0,0.00,0.00,0.00,0.00,0.00,0.0,0.0,0.0,0.0,0.00,0.00,0.00,0.00,0.00,Matches,def899bd
Daniel James,wls WAL,FW,23,2,2,126,1.4,0,0,0,0,0,0,0,0.00,0.00,0.00,0.00,0.00,0.3,0.3,0.3,0.6,0.22,0.22,0.44,0.22,0.44,Matches,c931d9f9
Hannibal Mejbri,tn TUN,MF,18,2,1,68,0.8,0,0,0,0,0,2,0,0.00,0.00,0.00,0.00,0.00,0.1,0.1,0.0,0.1,0.11,0.00,0.11,0.11,0.11,Matches,ca22ccb0
Amad Diallo,ci CIV,MF,19,1,1,67,0.7,0,0,0,0,0,0,0,0.00,0.00,0.00,0.00,0.00,0.1,0.1,0.0,0.1,0.18,0.00,0.18,0.18,0.18,Matches,9dc96f10
Shola Shoretire,eng ENG,MF,17,2,0,39,0.4,0,0,0,0,0,1,0,0.00,0.00,0.00,0.00,0.00,0.0,0.0,0.0,0.0,0.00,0.00,0.00,0.00,0.00,Matches,00f0482f
Teden Mengi,eng ENG,DF,19,1,0,30,0.3,0,0,0,0,0,0,0,0.00,0.00,0.00,0.00,0.00,0.0,0.0,0.0,0.0,0.00,0.00,0.00,0.00,0.00,Matches,91748070
Tom Heaton,eng ENG,GK,35,1,0,23,0.3,0,0,0,0,0,0,0,0.00,0.00,0.00,0.00,0.00,0.0,0.0,0.0,0.0,0.00,0.00,0.00,0.00,0.00,Matches,a6de6361
Alejandro Garnacho,es ESP,FWMF,17,2,0,13,0.1,0,0,0,0,0,0,0,0.00,0.00,0.00,0.00,0.00,0.0,0.0,0.0,0.0,0.00,0.00,0.00,0.00,0.00,Matches,7aa8adfe
Charlie Savage,wls WAL,MF,18,1,0,2,0.0,0,0,0,0,0,0,0,0.00,0.00,0.00,0.00,0.00,0.0,0.0,0.0,0.0,0.00,0.00,0.00,0.00,0.00,Matches,e07398f8
Zidane Iqbal,iq IRQ,MF,18,1,0,2,0.0,0,0,0,0,0,0,0,0.00,0.00,0.00,0.00,0.00,0.0,0.0,0.0,0.0,0.00,0.00,0.00,0.00,0.00,Matches,6fa3c28e
Matej Kovar,cz CZE,GK,21,0,0,,,,,,,,,,,,,,,,,,,,,,,,Matches,bc67a0e1
Álvaro Fernández,es ESP,DFMF,18,0,0,,,,,,,,,,,,,,,,,,,,,,,,Matches,33a68b9b
Björn Hardley,nl NED,DF,18,0,0,,,,,,,,,,,,,,,,,,,,,,,,Matches,0d3aa112
Andreas Pereira,br BRA,MF,25,0,0,,,,,,,,,,,,,,,,,,,,,,,,Matches,6639e500
Brandon Williams,eng ENG,DF,20,0,0,,,,,,,,,,,,,,,,,,,,,,,,Matches,5e74d6c8
Lee Grant,eng ENG,GK,38,0,0,,,,,,,,,,,,,,,,,,,,,,,,Matches,9dab6e3b
