Unnamed: 0,Unnamed: 1,Unnamed: 2,Unnamed: 3,Unnamed: 4,Tackles,Tackles.1,Tackles.2,Tackles.3,Tackles.4,Vs Dribbles,Vs Dribbles.1,Vs Dribbles.2,Vs Dribbles.3,Blocks,Blocks.1,Blocks.2,Unnamed: 17,Unnamed: 18,Unnamed: 19,Unnamed: 20,Unnamed: 21,-additional
Player,Nation,Pos,Age,90s,Tkl,TklW,Def 3rd,Mid 3rd,Att 3rd,Tkl,Att,Tkl%,Past,Blocks,Sh,Pass,Int,Tkl+Int,Clr,Err,Matches,-9999
Harry Maguire,eng ENG,DF,26,55.1,46,39,30,16,0,20,41,48.8,21,37,27,10,99,132,186,0,Matches,d8931174
Victor Lindelöf,se SWE,DF,25,45.6,30,20,16,12,2,18,21,85.7,3,28,18,10,37,56,138,0,Matches,f5deef4c
Aaron Wan-Bissaka,eng ENG,MFDF,21,45.3,144,102,81,54,9,67,92,72.8,25,53,15,38,83,220,92,0,Matches,9e525177
David de Gea,es ESP,GK,28,43.0,0,0,0,0,0,0,0,,0,0,0,0,0,0,7,4,Matches,7ba6d84e
Fred,br BRA,MF,26,39.7,79,59,40,32,7,33,123,26.8,90,56,10,46,62,127,35,1,Matches,b853e0ad
Anthony Martial,fr FRA,FW,23,39.5,16,13,1,4,11,1,20,5.0,19,18,1,17,6,21,19,0,Matches,8b788c01
Marcus Rashford,eng ENG,MFFW,21,38.4,15,13,2,7,6,10,28,35.7,18,31,1,30,14,26,19,0,Matches,a1d5bd30
Daniel James,wls WAL,MFFW,21,33.6,21,12,5,11,5,7,49,14.3,42,28,5,23,10,29,12,0,Matches,c931d9f9
Mason Greenwood,eng ENG,FWMF,17,29.2,25,19,9,8,8,7,27,25.9,20,9,0,9,10,32,7,1,Matches,58eee997
Nemanja Matić,rs SRB,MF,30,28.4,53,33,23,26,4,23,51,45.1,28,24,9,15,38,81,35,1,Matches,eb7822d7
Luke Shaw,eng ENG,DF,24,28.0,41,21,22,14,5,23,38,60.5,15,31,7,24,35,69,62,1,Matches,9c94165b
Brandon Williams,eng ENG,MFDF,18,27.5,38,33,23,10,5,18,44,40.9,26,19,6,13,41,64,41,0,Matches,5e74d6c8
Scott McTominay,sct SCO,MF,22,27.3,52,34,20,28,4,19,41,46.3,22,31,8,23,49,94,39,2,Matches,d93c2511
Andreas Pereira,br BRA,MF,23,25.5,33,24,10,15,8,16,49,32.7,33,13,0,13,16,42,7,0,Matches,6639e500
Juan Mata,es ESP,MF,31,22.0,11,7,4,5,2,3,15,20.0,12,8,1,7,2,13,3,0,Matches,29733c72
Jesse Lingard,eng ENG,MF,26,21.1,23,23,8,8,7,7,23,30.4,16,9,0,9,4,27,1,0,Matches,810e3c74
Bruno Fernandes,pt POR,MF,24,20.3,30,18,10,14,6,9,48,18.8,39,9,1,8,14,44,19,0,Matches,507c7bdf
Paul Pogba,fr FRA,MF,26,18.2,26,16,11,10,5,10,20,50.0,10,14,5,9,13,37,11,2,Matches,867239d3
Sergio Romero,ar ARG,GK,32,18.0,0,0,0,0,0,0,0,,0,0,0,0,0,0,3,1,Matches,1e26e376
Ashley Young,eng ENG,DF,34,14.6,16,12,8,4,4,6,18,33.3,12,10,2,8,17,33,31,0,Matches,be927d03
Eric Bailly,ci CIV,DF,25,8.0,3,2,3,0,0,3,6,50.0,3,9,6,3,11,13,23,1,Matches,a1232f4e
Marcos Rojo,ar ARG,DF,29,7.5,4,5,2,2,0,2,7,28.6,5,6,2,4,6,9,22,0,Matches,e0991c04
Axel Tuanzebe,eng ENG,DF,21,7.1,4,5,0,4,0,2,3,66.7,1,4,1,3,10,11,12,1,Matches,2baec6ce
Odion Ighalo,ng NGA,FW,30,6.8,2,3,0,2,0,1,5,20.0,4,3,2,1,1,2,0,0,Matches,03622183
Diogo Dalot,pt POR,DF,20,6.4,7,10,5,2,0,4,8,50.0,4,3,1,2,11,15,10,0,Matches,d9565625
Phil Jones,eng ENG,DF,27,6.3,6,8,3,3,0,3,3,100.0,0,3,1,2,8,10,21,1,Matches,def899bd
Tahith Chong,nl NED,MF,19,5.2,4,5,1,3,0,3,4,75.0,1,2,0,2,0,4,2,0,Matches,2696b6a9
James Garner,eng ENG,MF,18,3.5,6,2,2,4,0,1,7,14.3,6,1,0,1,6,12,3,0,Matches,4e015693
Angel Gomes,eng ENG,FWMF,18,3.3,2,1,0,0,2,0,4,0.0,4,3,0,3,1,3,1,0,Matches,645a3363
Timothy Fosu-Mensah,nl NED,DF,21,2.6,2,2,1,1,0,1,5,20.0,4,1,0,1,4,6,4,0,Matches,a9142dc3
Ethan Laird,eng ENG,DF,18,1.3,2,2,1,0,1,2,3,66.7,1,2,0,2,1,3,2,0,Matches,8267f8d4
Di'Shon Bernard,eng ENG,DF,18,1.0,1,1,1,0,0,0,0,,0,1,1,0,1,2,5,0,Matches,c21da05c
Dylan Levitt,wls WAL,MF,18,1.0,1,0,1,0,0,1,1,100.0,0,0,0,0,1,2,0,0,Matches,b12d5243
Lee Grant,eng ENG,GK,36,1.0,0,0,0,0,0,0,0,,0,0,0,0,0,0,0,0,Matches,9dab6e3b
D'Mani Bughail-Mellor,eng ENG,FW,18,0.3,0,0,0,0,0,0,0,,0,0,0,0,0,0,0,0,Matches,ad556f81
Teden Mengi,eng ENG,DF,17,0.1,1,1,1,0,0,1,1,100.0,0,0,0,0,1,2,0,0,Matches,91748070
Largie Ramazani,be BEL,MF,18,0.1,0,0,0,0,0,0,0,,0,1,0,1,0,0,0,0,Matches,cc9256ef
Ethan Galbraith,nir NIR,FW,18,0.0,0,0,0,0,0,0,0,,0,0,0,0,0,0,0,0,Matches,77c9e37c
